Code,Quantity,Variant
010045,7000,
020001,1,
020004,220,
020005,40,
020006,100,
020007,280,
020008,300,
020019,24,
010094,8850,
010102,300,
010103,114,
010120,320,
010193,90,
0101100,5800,
010248,175,
01303,3325,
010338,1500,
010339,2119,
010341,216,
01386,250,
01448,6125,
01458,450,
01481,7458,
01507,7750,
01574,8,
01586,1000,
015601,150,
015615,5400,
015622,1320,
01631,1350,
01664,740,
01666,810,
01679,198,
01681,63,
01683,4875,
01691,88,
01705,150,
01717,10240,
01724,198,
01741,3616,
01791,456,
01802,90,
01812,750,
01860,175,
01906,100,
01907,113,
01913,11750,
01914,45,
01915,525,
152,113,
01956,700,
02012,40,
02066,8,
02217,1000,
02265,3000,
02266,7175,
02296,60,
02358,100,
02399,113,
02401,198,
02412,565,
02421,113,
02422,815,
02425,72,
02427,5700,
02430,170,
02433,88,
02434,2800,
02435,80,
02437,1386,
02438,875,
02439,1695,
02440,630,
02441,1100,
02442,280,
